2,1
2,1,s
2,1,n
-1 8,-1 0,10 8,10 0,10 0,10 0,10 0,10 0,10 0,10 0,10 0,10 0,10 0,10 0,10 9,10 3,1 0,10 5,10 0,10 0,10 0,10 9,
-1 3,-1 0,10 3,5 0,5 0,5 0,5 0,5 0,5 0,5 0,5 0,5 0,5 0,5 0,10 1,10 3,4 0,4 0,10 6,10 2,10 7,10 1,
-1 3,-1 0,10 3,5 0,5 0,5 0,5 0,5 0,5 0,5 0,5 0,5 0,5 0,5 0,10 5,10 4,4 0,2 0,10 1,11 0,10 11,10 1,
-1 3,-1 0,10 3,5 0,5 0,5 0,5 0,5 0,5 0,5 0,5 0,5 0,5 0,5 0,2 0,2 0,2 0,2 0,10 10,2 0,10 6,10 10,
10 8,10 0,10 4,5 0,5 0,5 0,5 0,5 0,5 0,5 0,5 0,5 0,5 0,5 0,2 0,2 0,4 0,2 0,2 0,2 0,10 1,-1 0,
10 3,5 0,5 0,5 0,5 0,5 0,5 0,5 0,5 0,5 0,9 4,9 5,5 0,5 0,2 0,2 0,2 0,4 0,4 0,4 0,10 1,-1 0,
10 3,5 0,5 0,5 0,5 0,5 0,5 0,5 0,5 0,5 0,9 6,9 7,5 0,5 0,2 0,2 0,2 0,2 0,2 0,2 0,10 1,-1 7,
10 3,5 0,5 0,5 0,5 0,5 0,5 0,5 0,5 0,5 0,5 0,5 0,5 0,5 0,2 0,4 0,2 0,4 0,2 0,2 0,10 1,-1 0,
10 3,5 0,5 0,5 0,5 0,5 0,5 0,5 0,5 0,5 0,5 0,5 0,5 0,5 0,2 0,2 0,4 0,2 0,2 0,2 0,10 1,-1 0,
10 11,10 2,10 2,10 2,10 2,10 2,10 2,10 2,10 2,10 2,10 2,10 2,10 7,2 0,2 0,2 0,2 0,4 0,4 0,2 0,10 1,-1 0,
-1 11,-1 2,-1 2,-1 2,-1 2,-1 2,-1 2,-1 2,-1 2,-1 2,-1 2,-1 2,10 11,10 2,10 2,10 7,0 0,10 6,10 2,10 2,10 10,-1 0,
1 1 5 0
1 3 7 0
1 4 6 0
1 3 2 0
1 3 1 0
1 6 2 0
1 8 1 0
1 7 6 0
1 8 7 0
1 8 8 0
1 12 5 0
1 13 3 0
1 13 6 0
1 14 6 0
1 15 6 0
1 15 5 0
1 16 5 0
1 16 6 0
1 14 7 0
1 14 8 0
1 17 6 0
1 18 6 0
1 19 6 0
1 18 7 0
1 19 7 0
1 19 8 0
1 19 9 0
11 16 3 0
11 5 4 0
11 2 7 0
