1,1
1,1,s
1,1,n
10 8,10 0,10 0,10 0,10 4,1 0,10 5,10 0,10 0,10 0,10 9,
10 3,2 0,2 0,2 0,34 0,2 0,34 0,9 6,9 2,9 9,10 1,
10 3,2 0,2 0,2 0,34 0,14 1,2 0,2 0,2 0,9 3,10 1,
10 3,2 0,2 0,2 0,34 0,2 0,34 0,9 5,2 0,9 3,10 1,
10 3,2 0,2 0,2 0,34 0,2 0,34 0,9 7,2 0,9 6,10 1,
10 3,2 0,2 0,2 0,2 0,2 0,34 0,2 0,2 0,2 0,10 1,
10 3,2 0,2 0,34 0,34 0,2 0,34 0,13 1,2 0,2 0,10 1,
10 3,2 0,2 0,2 0,2 0,15 0,2 0,2 0,2 0,2 0,10 1,
10 3,9 0,9 5,2 0,2 0,2 0,2 0,2 0,9 4,9 0,10 1,
10 3,-1 14,9 1,2 0,2 0,2 0,2 0,2 0,9 3,-1 0,10 1,
10 11,10 2,10 2,10 2,10 7,0 0,10 6,10 2,10 2,10 2,10 10,
3 6 2 0
3 6 2 0
3 6 2 0
3 6 2 0
3 6 2 0
4 5 4 0
4 5 4 0
4 5 4 0
4 5 4 0
5 5 5 0
5 5 5 0
5 5 5 0
5 5 5 0
5 5 5 0
0 3 2 0
0 3 2 0
0 3 2 0
0 3 2 0
2 2 4 0
2 2 4 0
2 2 4 0
2 2 4 0
2 1 2 0
2 1 2 0
2 1 2 0
2 1 2 0
2 3 1 0
2 3 1 0
2 3 1 0
2 1 6 0
2 1 6 0
2 1 6 0
2 9 6 0
2 9 6 0
2 9 6 0
2 8 3 0
2 8 3 0
2 8 3 0
2 8 3 0
2 4 9 0
2 4 9 0
2 4 9 0
2 4 9 0
2 7 8 0
2 7 8 0
