2,2
1,1,n
2,2,s
10 8,10 0,10 0,10 0,10 4,0 0,10 5,10 0,10 0,10 0,10 9,-1 0,-1 0,-1 0,-1 0,-1 0,-1 0,-1 0,-1 0,-1 0,-1 0,-1 0,
10 3,9 8,9 2,9 7,2 0,2 0,2 0,9 6,9 2,9 9,10 1,-1 0,-1 0,-1 0,-1 0,-1 0,-1 0,-1 0,-1 0,-1 0,-1 0,-1 0,
10 3,9 1,3 0,3 0,3 0,3 0,3 0,3 0,3 0,9 3,10 1,-1 0,-1 0,-1 0,-1 0,-1 0,-1 0,-1 0,-1 0,-1 0,-1 0,-1 0,
10 3,9 1,3 0,9 4,9 12,9 12,9 12,9 5,3 0,9 3,10 1,-1 0,-1 0,-1 0,-1 0,-1 0,-1 0,-1 0,-1 0,-1 0,-1 0,-1 0,
10 3,9 1,3 0,9 13,3 0,3 0,3 0,9 13,3 0,9 3,10 1,-1 0,-1 0,-1 0,-1 0,-1 0,-1 0,-1 0,-1 0,-1 0,-1 0,-1 0,
10 3,9 1,3 0,9 13,3 0,34 0,3 0,9 13,3 0,9 3,10 1,-1 0,-1 0,-1 0,-1 0,-1 0,-1 0,-1 0,-1 0,-1 0,-1 0,-1 0,
10 3,9 1,3 0,9 13,3 0,3 0,3 0,9 13,3 0,9 3,10 1,-1 0,-1 0,-1 0,-1 0,-1 0,-1 0,-1 0,-1 0,-1 0,-1 0,-1 0,
10 3,9 1,3 0,9 6,9 12,9 12,9 12,9 7,3 0,9 3,10 1,-1 0,-1 0,-1 0,-1 0,-1 0,-1 0,-1 0,-1 0,-1 0,-1 0,-1 0,
10 3,9 1,3 0,3 0,3 0,3 0,3 0,3 0,3 0,9 3,10 1,-1 0,-1 0,-1 0,-1 0,-1 0,-1 0,-1 0,-1 0,-1 0,-1 0,-1 0,
10 3,9 11,9 5,2 0,2 0,2 0,9 4,9 0,9 0,9 10,10 1,-1 0,-1 0,-1 0,-1 0,-1 0,-1 0,-1 0,-1 0,-1 0,-1 0,-1 0,
10 11,10 2,10 2,10 7,2 0,10 6,10 2,10 2,10 2,10 2,10 10,-1 0,-1 0,-1 0,-1 0,-1 0,-1 0,-1 0,-1 0,-1 0,-1 0,-1 0,
10 8,10 0,10 0,10 4,2 0,10 5,10 0,10 0,10 0,10 0,10 0,10 0,10 0,10 0,10 0,10 0,10 0,10 0,10 0,10 0,10 0,10 9,
10 3,-1 0,9 8,9 7,2 0,9 6,9 2,9 2,9 7,2 0,2 0,2 0,2 0,2 0,2 0,2 0,2 0,2 0,2 0,2 0,2 0,10 1,
10 3,-1 0,9 1,34 0,2 0,2 0,2 0,2 0,2 0,2 0,10 6,10 7,9 0,9 5,5 0,34 0,5 0,5 0,5 0,34 0,2 0,10 1,
10 3,9 2,9 2,9 12,9 12,2 0,9 4,9 0,9 0,9 0,10 1,10 3,-1 0,-1 0,34 0,5 0,5 0,5 0,34 0,5 0,2 0,10 1,
10 3,2 0,2 0,2 0,2 0,2 0,9 3,9 2,9 2,9 2,10 5,10 4,34 0,34 0,5 0,5 0,5 0,34 0,5 0,5 0,2 0,10 1,
10 3,2 0,9 4,9 12,9 12,9 12,9 1,2 0,2 0,2 0,5 0,5 0,3 0,3 0,5 0,5 0,34 0,5 0,5 0,34 0,2 0,10 1,
10 3,2 0,9 13,2 0,2 0,2 0,9 13,2 0,9 12,9 12,10 6,10 7,34 0,34 0,5 0,5 0,5 0,34 0,5 0,5 0,2 0,10 1,
10 3,2 0,9 13,2 0,9 13,2 0,9 13,2 0,2 0,2 0,10 1,10 3,-1 0,-1 0,34 0,5 0,5 0,5 0,34 0,5 0,2 0,10 1,
10 3,2 0,9 13,2 0,9 13,2 0,9 6,9 12,9 12,2 0,10 1,10 3,9 2,9 7,5 0,34 0,5 0,5 0,5 0,34 0,2 0,10 1,
10 3,2 0,2 0,2 0,9 13,2 0,2 0,2 0,2 0,2 0,10 1,10 3,2 0,2 0,2 0,2 0,2 0,2 0,2 0,2 0,2 0,10 1,
10 11,10 2,10 2,10 2,10 2,10 2,10 2,10 2,10 2,10 2,10 10,10 11,10 2,10 2,10 2,10 7,1 0,10 6,10 2,10 2,10 2,10 10,
0 5 13 0
0 5 13 0
0 5 13 0
0 5 13 0
0 5 13 0
11 20 16 0
11 20 17 0
0 5 13 0
0 5 13 0
0 5 13 0
0 5 13 0
0 5 13 0
